{
    "racket": {
        "init_pos": [0.5, 0.05],
        "width": 0.3,
        "height": 0.05
    },
    "walls": [{
            "left": 0.0,
            "right": 0.1,
            "bottom": 0.0,
            "top": 1.0
        },
        {
            "left": 0.9,
            "right": 1.0,
            "bottom": 0.0,
            "top": 1.0
        }

    ],
    "obstacles": [{
            "vertices": [
                [0.7, 0.8],
                [0.7, 0.85],
                [0.75, 0.85],
                [0.75, 0.8]
            ],
            "clockwise": true
        },

        {
            "vertices": [
                [0.45, 0.2],
                [0.45, 0.3],
                [0.55, 0.3],
                [0.55, 0.2]
            ],
            "clockwise": true
        },
        {
            "vertices": [
                [0.25, 0.75],
                [0.25, 0.65],
                [0.35, 0.65],
                [0.35, 0.75]
            ],
            "clockwise": false
        },
        {
            "vertices": [
                [0.75, 0.45],
                [0.75, 0.55],
                [0.85, 0.55],
                [0.85, 0.45]
            ],
            "clockwise": true
        }
    ]
}